{
	  "metadata": {
		      "name": "rsync",
		      "description": "description of rsync controller",
		      "userData1": "user data 1 for rsync",
		      "userData2": "user data 2 for rsync"
		    }, 
          "spec": {
	 	     "host": "rsync",
	            "port": 9041
                  }
}
